# **disize**: A tool for size factor estimation

Thought of a way to use sparsity-inducing priors to leverage experimental design when estimating size factors.

The only function exported is `disize::disize`, provide your count matrix and a dataframe providing metadata for the samples (or pass an explicit `model_data` argument) and you're good to go.

# Examples
```r
> data
# A tibble: 30,000 × 6
    gene donor batch cell_type cell_barcode counts
   <int> <int> <int>     <int> <chr>         <dbl>
 1     1     1     1         1 1:1_1             4
 2     1     1     1         1 1:1_2             8
 3     1     1     1         1 1:1_3             8
 4     1     1     1         1 1:1_4             7
 5     1     1     1         1 1:1_5             6
 6     1     1     1         1 1:1_6            10
 7     1     1     1         1 1:1_7            11
 8     1     1     1         1 1:1_8             4
 9     1     1     1         1 1:1_9            17
10     1     1     1         1 1:1_10            7
# ℹ 29,990 more rows
# ℹ Use `print(n = ...)` to see more rows
…
